<?xml version="1.0" encoding="utf-8"?>
<!-- Generator: Adobe Illustrator 16.0.0, SVG Export Plug-In . SVG Version: 6.00 Build 0)  -->
<!DOCTYPE svg PUBLIC "-//W3C//DTD SVG 1.1//EN" "http://www.w3.org/Graphics/SVG/1.1/DTD/svg11.dtd">
<svg version="1.1" xmlns="http://www.w3.org/2000/svg" xmlns:xlink="http://www.w3.org/1999/xlink" x="0px" y="0px"
	 width="126.083px" height="100.338px" viewBox="0 0 126.083 100.338" enable-background="new 0 0 126.083 100.338"
	 xml:space="preserve">
<g id="Layer_2" display="none">
	<line display="inline" fill="#ED1C24" x1="-160.859" y1="39.109" x2="438.139" y2="39.109"/>
	<line display="inline" fill="#ED1C24" x1="-160.859" y1="57.059" x2="438.139" y2="57.059"/>
</g>
<g id="Layer_1">
	<g>
		<path d="M126.083,39.109c-3.251,0.125-7.674,0.051-10.066-3.925L9.156,0.893C3.173-0.871,0.39,4.697,3.179,8.576l24.474,32.18
			c6.586,5.662,4.459,11.546,0,14.941L1.899,90.535c-3.978,4.922,2.613,11.633,8.395,8.395l105.722-37.99
			c2.151-3.836,4.906-3.63,9.65-4.269l0.416-4.084V39.109z"/>
		<path fill="#010101" d="M126.083,39.109l-0.02-0.5c-0.443,0.017-0.907,0.03-1.381,0.03c-1.486,0-3.08-0.132-4.523-0.662
			c-1.445-0.533-2.741-1.441-3.714-3.052l-0.097-0.161L9.303,0.415L9.297,0.413C8.474,0.17,7.699,0.057,6.979,0.057
			C5.315,0.054,3.947,0.671,3.018,1.646C2.086,2.619,1.591,3.932,1.592,5.301c0,1.204,0.382,2.455,1.182,3.567L2.81,8.919
			l24.522,32.22l0.322-0.383l-0.326,0.379c2.909,2.506,4.003,4.971,4.006,7.202c0.004,2.692-1.625,5.167-3.982,6.961l-0.013,0.01
			l-25.8,34.879l-0.027,0.033c-0.913,1.126-1.327,2.375-1.325,3.582c0.001,1.722,0.819,3.337,2.082,4.522
			c1.263,1.185,2.988,1.953,4.852,1.954c1.122,0.001,2.292-0.281,3.419-0.913l-0.244-0.437l0.169,0.471l105.897-38.054l0.092-0.163
			c1.039-1.833,2.12-2.617,3.572-3.103c1.454-0.479,3.315-0.595,5.708-0.915l0.391-0.052l0.459-4.502V38.59l-0.52,0.02
			L126.083,39.109h-0.5v13.452l-0.413,4.059l0.497,0.051l-0.066-0.495c-2.352,0.318-4.24,0.42-5.887,0.955
			c-1.649,0.53-3.021,1.562-4.134,3.564l0.437,0.244l-0.169-0.471L10.086,98.474l-0.036,0.02c-0.982,0.55-1.975,0.786-2.931,0.786
			c-1.584,0.001-3.077-0.659-4.168-1.684c-1.092-1.024-1.767-2.397-1.766-3.793c0.001-0.982,0.324-1.987,1.102-2.953l-0.389-0.314
			l0.329,0.376l25.754-34.839l-0.329-0.375l0.303,0.396c2.521-1.918,4.373-4.645,4.377-7.756c0.002-2.578-1.294-5.335-4.354-7.96
			l-0.002-0.001L3.501,8.193L3.179,8.576l0.406-0.292c-0.68-0.946-0.993-1.99-0.993-2.983c0-1.131,0.407-2.19,1.148-2.964
			c0.743-0.772,1.818-1.277,3.239-1.28c0.615,0,1.295,0.097,2.037,0.315l0.141-0.479L9.003,1.369l106.86,34.292l0.152-0.476
			l-0.429,0.258c1.091,1.817,2.612,2.887,4.228,3.475c1.615,0.591,3.323,0.722,4.867,0.723c0.492,0,0.969-0.014,1.42-0.031
			L126.083,39.109h-0.5H126.083z"/>
	</g>
</g>
</svg>
