<?xml version="1.0" encoding="utf-8"?>
<!-- Generator: Adobe Illustrator 16.0.0, SVG Export Plug-In . SVG Version: 6.00 Build 0)  -->
<!DOCTYPE svg PUBLIC "-//W3C//DTD SVG 1.1//EN" "http://www.w3.org/Graphics/SVG/1.1/DTD/svg11.dtd">
<svg version="1.1" id="Layer_1" xmlns="http://www.w3.org/2000/svg" xmlns:xlink="http://www.w3.org/1999/xlink" x="0px" y="0px"
	 width="4.448px" height="35.206px" viewBox="0 0 4.448 35.206" enable-background="new 0 0 4.448 35.206" xml:space="preserve">
<path d="M4.438,1.897C4.389,0.843,3.42,0,2.224,0C1.027,0,0.059,0.843,0.01,1.897H0v31.329c0,1.094,0.996,1.979,2.224,1.979
	c1.228,0,2.224-0.885,2.224-1.979l0,0V1.897H4.438z"/>
</svg>
