<?xml version="1.0" encoding="utf-8"?>
<!-- Generator: Adobe Illustrator 16.0.0, SVG Export Plug-In . SVG Version: 6.00 Build 0)  -->
<!DOCTYPE svg PUBLIC "-//W3C//DTD SVG 1.1//EN" "http://www.w3.org/Graphics/SVG/1.1/DTD/svg11.dtd">
<svg version="1.1" xmlns="http://www.w3.org/2000/svg" xmlns:xlink="http://www.w3.org/1999/xlink" x="0px" y="0px"
	 width="73.857px" height="52.112px" viewBox="0 0 73.857 52.112" enable-background="new 0 0 73.857 52.112" xml:space="preserve">
<g id="Layer_2" display="none">
	<line display="inline" fill="#ED1C24" x1="-284.779" y1="17.451" x2="314.22" y2="17.451"/>
	<line display="inline" fill="#ED1C24" x1="-284.779" y1="31.399" x2="314.22" y2="31.399"/>
</g>
<g id="Layer_1">
	<path fill="#ED1C24" d="M317.22,17.451"/>
	<path fill="#ED1C24" d="M-281.779,17.451"/>
	<path fill="#ED1C24" d="M317.22,31.399"/>
	<path fill="#ED1C24" d="M-281.779,31.399"/>
	<path fill-rule="evenodd" clip-rule="evenodd" d="M138.711,101.194L138.711,101.194c2.072,0.004,7.121-2.898,9.398-6.246
		c0.195-0.287,0.451-0.725,1.258-0.496c0.674,0.189,1.346,0.375,2.018,0.553V94.19v-0.451V93.37h-1.201
		c-0.762,0-1.201-0.355-1.201-1.146c0-1.941,1.572-3.514,3.514-3.514c1.939,0,3.514,1.572,3.514,3.514
		c0,0.791-0.439,1.146-1.201,1.146h-1.252v0.369v0.205l0,0v0.451v1.164c3.565,0.877,7.106,1.584,10.642,2.152v-1.037v-0.453v-0.369
		h-1.203c-0.76,0-1.201-0.355-1.201-1.146c0-1.939,1.574-3.514,3.516-3.514c1.939,0,3.512,1.574,3.512,3.514
		c0,0.791-0.438,1.146-1.201,1.146h-1.25v0.576l0,0v0.451l0,0v1.164c3.99,0.58,7.977,0.992,11.98,1.287v-1.018v-0.82h-1.201
		c-0.762,0-1.201-0.355-1.201-1.146c0-1.941,1.572-3.514,3.514-3.514s3.514,1.572,3.514,3.514c0,0.791-0.439,1.146-1.201,1.146
		h-1.252v0.574l0,0v0.451v0.959c2.857,0.18,5.727,0.303,8.615,0.389c0.584,0.016,0.947-0.08,0.924,0.504l-0.064,1.607
		c-0.012,0.268-0.055,0.547-0.188,0.777l-0.744,1.285c-0.172,0.299-0.236,0.566-0.236,0.912v1.27v4.088v1.268
		c0,0.346,0.064,0.613,0.236,0.912l0.744,1.285c0.133,0.23,0.176,0.512,0.188,0.777l0.064,1.607c0.023,0.584-0.34,0.488-0.924,0.506
		c-2.889,0.084-5.758,0.207-8.615,0.387v0.959l0,0v0.451v0.574h1.252c0.762,0,1.201,0.355,1.201,1.148
		c0,1.939-1.572,3.512-3.514,3.514c-1.941,0-3.514-1.574-3.514-3.516c0-0.791,0.439-1.146,1.201-1.146h1.201v-0.369v-0.451V117.2
		c-4.004,0.293-7.99,0.705-11.98,1.285v1.164v0.514v0.512h1.25c0.762,0,1.201,0.355,1.201,1.148c0,1.939-1.572,3.514-3.514,3.514
		c-1.939,0-3.514-1.574-3.514-3.514c0-0.793,0.439-1.148,1.201-1.148h1.203v-0.369v-0.451v-1.037
		c-3.535,0.568-7.076,1.275-10.642,2.152v1.156v0.451v0.574h1.252c0.762,0,1.199,0.355,1.199,1.148c0,1.939-1.572,3.514-3.512,3.514
		c-1.941,0-3.516-1.574-3.516-3.514c0-0.793,0.441-1.148,1.203-1.148h1.201v-0.367v-0.453l0,0v-0.807
		c-0.67,0.178-1.344,0.361-2.018,0.553c-0.807,0.229-1.063-0.209-1.258-0.496c-2.277-3.348-7.326-6.25-9.398-6.246"/>
	<path fill-rule="evenodd" clip-rule="evenodd" d="M-105.25,96.484l10.625-6.054c4.229-2.663,42.833,9.536,52.335,15.545
		c2.644,1.67,4.089,4.701,0.771,6.055l-10.372,4.236c-2.813,1.146-8.148-5.5-18.712-2.898l-16.659,4.105
		c-3.045,0.748-4.588-3.141-8.452-5.191c-3.862-2.053-6.036-2.053-9.537-2.174C-105.25,110.108-105.597,96.963-105.25,96.484z"/>
	
		<rect x="-52.398" y="100.31" transform="matrix(0.3056 -0.9521 0.9521 0.3056 -131.3264 22.644)" fill-rule="evenodd" clip-rule="evenodd" width="4.521" height="2.107"/>
	<path fill-rule="evenodd" clip-rule="evenodd" d="M-52.396,99.016c0.99,1.033,2.753,2.235,5.462,1.805l0.757-2.357
		c-0.142-0.73-1.648-2.428-5.393-1.885L-52.396,99.016z"/>
	
		<rect x="-60.171" y="97.415" transform="matrix(0.3061 -0.952 0.952 0.3061 -133.9267 13.1961)" fill-rule="evenodd" clip-rule="evenodd" width="4.521" height="2.107"/>
	<path fill-rule="evenodd" clip-rule="evenodd" d="M-60.168,96.12c0.989,1.031,2.753,2.236,5.459,1.807l0.759-2.36
		c-0.142-0.729-1.648-2.425-5.393-1.884L-60.168,96.12z"/>
	
		<rect x="-67.96" y="94.877" transform="matrix(0.3058 -0.9521 0.9521 0.3058 -136.9395 4.0392)" fill-rule="evenodd" clip-rule="evenodd" width="4.521" height="2.107"/>
	<path fill-rule="evenodd" clip-rule="evenodd" d="M-67.957,93.582c0.988,1.033,2.75,2.236,5.459,1.806l0.758-2.357
		c-0.142-0.73-1.647-2.426-5.395-1.884L-67.957,93.582z"/>
	
		<rect x="-75.895" y="92.553" transform="matrix(0.3062 -0.952 0.952 0.3062 -140.1935 -5.1554)" fill-rule="evenodd" clip-rule="evenodd" width="4.522" height="2.106"/>
	<path fill-rule="evenodd" clip-rule="evenodd" d="M-75.892,91.257c0.99,1.03,2.752,2.235,5.46,1.806l0.758-2.357
		c-0.142-0.731-1.647-2.428-5.393-1.885L-75.892,91.257z"/>
	
		<rect x="-83.628" y="90.603" transform="matrix(0.3058 -0.9521 0.9521 0.3058 -143.7468 -13.8444)" fill-rule="evenodd" clip-rule="evenodd" width="4.521" height="2.107"/>
	<path fill-rule="evenodd" clip-rule="evenodd" d="M-83.625,89.309c0.988,1.03,2.75,2.235,5.459,1.805l0.758-2.357
		c-0.141-0.73-1.648-2.428-5.393-1.885L-83.625,89.309z"/>
	
		<rect x="-91.96" y="89.423" transform="matrix(0.3058 -0.9521 0.9521 0.3058 -148.4069 -22.5954)" fill-rule="evenodd" clip-rule="evenodd" width="4.521" height="2.107"/>
	<path fill-rule="evenodd" clip-rule="evenodd" d="M-91.957,88.128c0.989,1.033,2.751,2.236,5.46,1.806l0.757-2.357
		c-0.14-0.73-1.647-2.426-5.392-1.884L-91.957,88.128z"/>
	<path fill-rule="evenodd" clip-rule="evenodd" d="M-248.771,17.59l2.828,0.039c5.875,0.082,7.978-7.081,13.442-7.275l38.282-1.368
		c13.288-0.474,13.384,31.518,0,30.857l-38.282-1.368c-5.462-0.196-7.245-7.346-13.118-7.275l-3.153,0.038"/>
	<g>
		<path fill-rule="evenodd" clip-rule="evenodd" d="M-194.592,47.876c-2.194,1.274-5.636,1.274-7.829,0l-0.608-3.331
			c2.191-2.548,6.852-2.548,9.043,0L-194.592,47.876z"/>
		<polygon fill-rule="evenodd" clip-rule="evenodd" points="-196.689,37.906 -197.355,44.618 -199.66,44.618 -200.326,37.906 		"/>
		<path fill-rule="evenodd" clip-rule="evenodd" d="M-208.465,47.876c-2.194,1.274-5.637,1.274-7.829,0l-0.608-3.331
			c2.192-2.548,6.852-2.548,9.044,0L-208.465,47.876z"/>
		<polygon fill-rule="evenodd" clip-rule="evenodd" points="-210.562,37.906 -211.229,44.618 -213.532,44.618 -214.198,37.906 		"/>
		<path fill-rule="evenodd" clip-rule="evenodd" d="M-222.339,47.876c-2.191,1.274-5.636,1.274-7.827,0l-0.608-3.331
			c2.192-2.548,6.852-2.548,9.044,0L-222.339,47.876z"/>
		<polygon fill-rule="evenodd" clip-rule="evenodd" points="-224.435,37.906 -225.101,44.618 -227.405,44.618 -228.071,37.906 		"/>
		<path fill-rule="evenodd" clip-rule="evenodd" d="M-194.592,0.956c-2.194-1.274-5.636-1.274-7.829,0l-0.608,3.332
			c2.191,2.549,6.852,2.549,9.043,0L-194.592,0.956z"/>
		<polygon fill-rule="evenodd" clip-rule="evenodd" points="-196.689,10.926 -197.355,4.215 -199.66,4.215 -200.326,10.926 		"/>
		<path fill-rule="evenodd" clip-rule="evenodd" d="M-208.465,0.956c-2.194-1.274-5.637-1.274-7.829,0l-0.608,3.332
			c2.192,2.549,6.852,2.549,9.044,0L-208.465,0.956z"/>
		<polygon fill-rule="evenodd" clip-rule="evenodd" points="-210.562,10.926 -211.229,4.215 -213.532,4.215 -214.198,10.926 		"/>
		<path fill-rule="evenodd" clip-rule="evenodd" d="M-222.339,0.956c-2.191-1.274-5.636-1.274-7.827,0l-0.608,3.332
			c2.192,2.549,6.852,2.549,9.044,0L-222.339,0.956z"/>
		<polygon fill-rule="evenodd" clip-rule="evenodd" points="-224.435,10.926 -225.101,4.215 -227.405,4.215 -228.071,10.926 		"/>
	</g>
	<path fill-rule="evenodd" clip-rule="evenodd" d="M48.668,52.112l-3.826-12.223L9.449,10.043C6.68,14.088,3.57,16.775,0,17.619
		v13.647C16.223,36.18,32.444,43.596,48.668,52.112z"/>
	<path fill-rule="evenodd" clip-rule="evenodd" d="M47.469,36.512c-0.492-1.373-2.006-2.65-3.441-2.902l-1.506,1.239
		c0.02,1.935,2.07,3.662,3.979,3.354L47.469,36.512z"/>
	<polygon fill-rule="evenodd" clip-rule="evenodd" points="42.848,40.12 45.045,36.922 44.032,36.067 41.25,38.772 	"/>
	<path fill-rule="evenodd" clip-rule="evenodd" d="M41.368,31.368c-0.49-1.372-2.006-2.648-3.441-2.902l-1.504,1.24
		c0.02,1.933,2.068,3.66,3.977,3.354L41.368,31.368z"/>
	<polygon fill-rule="evenodd" clip-rule="evenodd" points="36.749,34.975 38.946,31.777 37.932,30.922 35.151,33.627 	"/>
	<path fill-rule="evenodd" clip-rule="evenodd" d="M35.268,26.224c-0.492-1.373-2.006-2.65-3.441-2.902l-1.504,1.239
		c0.018,1.935,2.068,3.662,3.977,3.354L35.268,26.224z"/>
	<polygon fill-rule="evenodd" clip-rule="evenodd" points="30.649,29.833 32.844,26.633 31.833,25.779 29.049,28.484 	"/>
	<path fill-rule="evenodd" clip-rule="evenodd" d="M29.229,21.06c-0.492-1.371-2.006-2.65-3.443-2.902l-1.504,1.241
		c0.02,1.933,2.07,3.661,3.979,3.353L29.229,21.06z"/>
	<polygon fill-rule="evenodd" clip-rule="evenodd" points="24.608,24.667 26.805,21.47 25.792,20.615 23.01,23.32 	"/>
	<path fill-rule="evenodd" clip-rule="evenodd" d="M23.127,15.917c-0.49-1.373-2.006-2.65-3.441-2.902l-1.504,1.239
		c0.02,1.935,2.069,3.662,3.977,3.354L23.127,15.917z"/>
	<polygon fill-rule="evenodd" clip-rule="evenodd" points="18.508,19.525 20.704,16.328 19.692,15.472 16.91,18.177 	"/>
	<path fill-rule="evenodd" clip-rule="evenodd" d="M17.027,10.775c-0.492-1.374-2.006-1.156-3.443-1.408l-1.502-0.256
		c0.018,1.935,2.068,3.66,3.977,3.354L17.027,10.775z"/>
	<polygon fill-rule="evenodd" clip-rule="evenodd" points="12.408,14.38 14.604,11.182 13.592,10.328 10.809,13.033 	"/>
	<path fill-rule="evenodd" clip-rule="evenodd" d="M70.922,126.556c13.766-1.242,25.412-0.004,33.262,1.549
		c16.186,3.209,25.328-0.904,4.375-9.871L58.254,96.709c-1.967-0.843-2.82-2.248-6.842,0.589c-1.422,1.003-3.137,1.956-4.525,1.956
		l0.014,13.66c2.27,0,8.332,2.622,12.369,7.438C61.752,123.313,67.377,126.876,70.922,126.556z"/>
	
		<rect x="98.645" y="114.428" transform="matrix(0.3933 -0.9194 0.9194 0.3933 -44.2648 163.6958)" fill-rule="evenodd" clip-rule="evenodd" width="6.515" height="1.921"/>
	<path fill-rule="evenodd" clip-rule="evenodd" d="M100.264,111.898l0.889-2.073c1.461-1.643,5.23,0,5.063,2.165l-0.887,2.078
		C104.186,114.963,100.405,113.346,100.264,111.898z"/>
	
		<rect x="90.515" y="110.949" transform="matrix(0.3934 -0.9193 0.9193 0.3934 -46.0042 154.0891)" fill-rule="evenodd" clip-rule="evenodd" width="6.518" height="1.919"/>
	<path fill-rule="evenodd" clip-rule="evenodd" d="M92.131,108.421l0.891-2.077c1.461-1.641,5.23,0,5.063,2.166l-0.887,2.078
		C96.055,111.483,92.276,109.867,92.131,108.421z"/>
	
		<rect x="82.386" y="107.471" transform="matrix(0.3939 -0.9192 0.9192 0.3939 -47.7537 144.4446)" fill-rule="evenodd" clip-rule="evenodd" width="6.516" height="1.918"/>
	<path fill-rule="evenodd" clip-rule="evenodd" d="M84.004,104.941l0.889-2.075c1.461-1.641,5.23,0,5.063,2.167l-0.889,2.075
		C87.922,108.006,84.145,106.386,84.004,104.941z"/>
	
		<rect x="74.253" y="103.989" transform="matrix(0.3934 -0.9193 0.9193 0.3934 -49.4709 134.9185)" fill-rule="evenodd" clip-rule="evenodd" width="6.518" height="1.922"/>
	<path fill-rule="evenodd" clip-rule="evenodd" d="M75.875,101.463l0.887-2.078c1.463-1.639,5.232,0.002,5.064,2.167l-0.889,2.077
		C79.793,104.525,76.012,102.909,75.875,101.463z"/>
	
		<rect x="66.124" y="100.512" transform="matrix(0.3936 -0.9193 0.9193 0.3936 -51.207 125.3202)" fill-rule="evenodd" clip-rule="evenodd" width="6.516" height="1.92"/>
	<path fill-rule="evenodd" clip-rule="evenodd" d="M67.745,97.985l0.887-2.078c1.463-1.641,5.23,0,5.064,2.168l-0.889,2.076
		C71.665,101.047,67.885,99.43,67.745,97.985z"/>
	
		<rect x="57.995" y="97.033" transform="matrix(0.3935 -0.9193 0.9193 0.3935 -52.9367 115.7444)" fill-rule="evenodd" clip-rule="evenodd" width="6.517" height="1.92"/>
	<path fill-rule="evenodd" clip-rule="evenodd" d="M59.614,94.505l0.889-2.077c1.461-1.64,5.23,0,5.063,2.167l-0.888,2.077
		C63.533,97.567,59.754,95.951,59.614,94.505z"/>
</g>
</svg>
